text,url,nb_likes,likes,comments
"Actuellement en formation à l’école de l’IMIE, Je suis désormais à la recherche d'une alternance pour continuer ma deuxième année.",https://www.linkedin.com/feed/update/urn:li:activity:6461152792789680128/,,,
"Bonjour à tous,
Je suis à la recherche d'un stage de 3 à 5 mois dans le développement informatique.",https://www.linkedin.com/feed/update/urn:li:activity:6392698957239242752/,1,"Prénom : Philippe | Nom : Brognoli | Travail : Expert dans les technologies de l'identification automatique au service de vos projets traçabilité, logistique, mobilité
",
"Bonjour à tous,

Entrant en deuxième année à l’IMIE de Nantes et préparant le Titre RNCP de niveau II de ""Concepteur Développeur d'Applications"" (BAC +3),
je suis à la recherche d'une alternance de 2 ans en développement informatique.
N'hésitez pas à partager cette publication ou à me contacter !",https://www.linkedin.com/feed/update/urn:li:activity:6423146940678184960/,2,"Prénom : Valentin | Nom : LEVEQUE | Travail : Alternant en support technique chez Econocom
Prénom : Maxime | Nom : Coisne | Travail : ✉ maxime.coisne@icloud.com
",
,,1,"Prénom : Pierre-Antoine | Nom : DENIAUD | Travail : Étudiant en alternance chez Gfi Informatique
",
